<?xml version="1.0" standalone="no"?>
<!DOCTYPE svg PUBLIC "-//W3C//DTD SVG 1.1//EN" "http://www.w3.org/Graphics/SVG/1.1/DTD/svg11.dtd" >
<svg xmlns="http://www.w3.org/2000/svg">
<metadata></metadata>
<defs>
<font id="proxima_nova_cn_rgregular" horiz-adv-x="1048" >
<font-face units-per-em="2048" ascent="1618" descent="-430" />
<missing-glyph horiz-adv-x="440" />
<glyph unicode="&#xfb01;" horiz-adv-x="933" d="M39 860v129h131v119q0 130 66.5 204t175.5 74q74 0 127 -30l-37 -119q-21 18 -64 18q-58 0 -89.5 -38.5t-31.5 -108.5v-119h166v-129h-166v-860h-147v860h-131zM625 1233q0 41 30 70.5t70 29.5q42 0 71 -29t29 -71t-29 -71t-71 -29q-40 0 -70 29.5t-30 70.5zM653 0v989 h146v-989h-146z" />
<glyph unicode="&#xfb02;" horiz-adv-x="933" d="M39 860v129h131v119q0 130 66.5 204t175.5 74q74 0 127 -30l-37 -119q-21 18 -64 18q-58 0 -89.5 -38.5t-31.5 -108.5v-119h166v-129h-166v-860h-147v860h-131zM653 0v1366h146v-1366h-146z" />
<glyph unicode="&#xfb03;" horiz-adv-x="1454" d="M39 860v129h131v119q0 130 66 204t182 74q111 0 176 -65l-57 -109q-40 43 -95 43q-62 0 -93.5 -38.5t-31.5 -108.5v-119h166v-129h-166v-860h-147v860h-131zM557 860v129h131v119q0 130 66.5 204t175.5 74q74 0 127 -30l-37 -119q-21 18 -64 18q-58 0 -89 -38.5 t-31 -108.5v-119h165v-129h-165v-860h-148v860h-131zM1145 1233q0 41 30 70.5t70 29.5q43 0 72 -29.5t29 -70.5t-29 -70.5t-72 -29.5q-40 0 -70 29.5t-30 70.5zM1174 0v989h145v-989h-145z" />
<glyph unicode="&#xfb04;" horiz-adv-x="1454" d="M39 860v129h131v119q0 130 66 204t182 74q111 0 176 -65l-57 -109q-40 43 -95 43q-62 0 -93.5 -38.5t-31.5 -108.5v-119h166v-129h-166v-860h-147v860h-131zM557 860v129h131v119q0 130 66.5 204t175.5 74q74 0 127 -30l-37 -119q-21 18 -64 18q-58 0 -89 -38.5 t-31 -108.5v-119h165v-129h-165v-860h-148v860h-131zM1174 0v1366h145v-1366h-145z" />
<glyph horiz-adv-x="2048" />
<glyph horiz-adv-x="2048" />
<glyph unicode="&#xd;" horiz-adv-x="2048" />
<glyph unicode=" "  horiz-adv-x="440" />
<glyph unicode="&#x09;" horiz-adv-x="440" />
<glyph unicode="&#xa0;" horiz-adv-x="440" />
<glyph unicode="!" horiz-adv-x="466" d="M125 90q0 43 32 76t76 33t77.5 -33t33.5 -76q0 -44 -33.5 -77t-77.5 -33t-76 33t-32 77zM141 1366h185l-31 -987h-121z" />
<glyph unicode="&#x22;" horiz-adv-x="696" d="M111 1296q0 37 27 63.5t65 26.5q37 0 63.5 -26.5t26.5 -63.5q0 -14 -13.5 -126t-26.5 -217l-13 -105h-76q-53 417 -53 448zM403 1296q0 37 26.5 63.5t64.5 26.5t65 -26.5t27 -63.5q0 -14 -14 -126t-28 -217l-14 -105h-73q-54 417 -54 448z" />
<glyph unicode="#" horiz-adv-x="1038" d="M39 373l29 104h182l115 412h-181l25 104h186l105 373h121l-105 -373h184l105 373h121l-107 -373h180l-26 -104h-182l-117 -412h186l-29 -104h-188l-104 -373h-121l108 373h-188l-105 -373h-120l106 373h-180zM369 477h184l117 412h-185z" />
<glyph unicode="$" horiz-adv-x="960" d="M63 147l91 125q50 -60 123.5 -101t158.5 -48v512q-63 30 -98.5 49.5t-86.5 56.5t-78.5 73.5t-48 92.5t-20.5 123q0 140 92 237.5t240 116.5v189h121v-187q186 -18 305 -143l-84 -123q-88 98 -221 117v-465q59 -29 98 -51t88 -60.5t77.5 -78t48.5 -98.5t20 -128 q0 -143 -85.5 -247.5t-246.5 -126.5v-187h-121v182q-231 11 -373 170zM270 1038q0 -68 43 -115.5t123 -91.5v406q-74 -15 -120 -69t-46 -130zM557 131q81 21 123.5 80t42.5 135q0 78 -43 131t-123 98v-444z" />
<glyph unicode="%" horiz-adv-x="1331" d="M61 1049q0 147 80 242t209 95t208 -95t79 -242q0 -145 -79.5 -240.5t-207.5 -95.5q-129 0 -209 95.5t-80 240.5zM176 1049q0 -100 48.5 -168t125.5 -68t124.5 68t47.5 168q0 103 -47.5 170t-124.5 67t-125.5 -67.5t-48.5 -169.5zM262 0l717 1366h98l-719 -1366h-96z M694 309q0 147 80 243.5t209 96.5q128 0 208.5 -97t80.5 -243q0 -144 -80.5 -239t-208.5 -95q-129 0 -209 95t-80 239zM809 309q0 -100 48 -166.5t126 -66.5t126 66.5t48 166.5q0 103 -48 171.5t-126 68.5t-126 -68.5t-48 -171.5z" />
<glyph unicode="&#x26;" horiz-adv-x="1069" d="M76 344q0 75 19.5 138.5t57 114t76 86t93.5 75.5q-91 187 -91 305q0 142 80 232.5t203 90.5q111 0 184.5 -73t73.5 -193q0 -30 -3.5 -57t-13 -52.5t-17 -45t-25.5 -42.5t-27.5 -37t-35 -36t-35.5 -31.5t-40.5 -31.5t-39 -28.5t-41.5 -29.5q65 -114 120 -190 q74 -114 123 -177q67 138 109 306l125 -56q-66 -215 -148 -360q46 -59 211 -252h-184q-60 71 -111 135q-137 -160 -319 -160q-150 0 -247 98t-97 271zM231 352q0 -118 60 -186t147 -68q121 0 224 138q-105 135 -152 208q-57 84 -127 203q-72 -60 -112 -130.5t-40 -164.5z M377 1061q0 -96 61 -225q63 43 102 77.5t68 88t29 114.5q0 75 -33.5 115.5t-85.5 40.5q-64 0 -102.5 -55t-38.5 -156z" />
<glyph unicode="'" horiz-adv-x="403" d="M111 1296q0 37 27 63.5t65 26.5q37 0 63.5 -26.5t26.5 -63.5q0 -14 -13.5 -126t-26.5 -217l-13 -105h-76q-53 417 -53 448z" />
<glyph unicode="(" horiz-adv-x="468" d="M94 498q0 498 242 905l96 -55q-88 -211 -132 -408.5t-44 -441.5q0 -243 44 -441.5t132 -406.5l-96 -58q-242 407 -242 906z" />
<glyph unicode=")" horiz-adv-x="468" d="M37 -350l96 -58q242 413 242 906q0 492 -242 905l-96 -55q88 -211 132 -408.5t44 -441.5q0 -243 -44 -441.5t-132 -406.5z" />
<glyph unicode="*" horiz-adv-x="659" d="M53 985l209 109l-209 106l45 78l197 -127l-10 235h90l-13 -235l199 127l45 -78l-209 -106l209 -109l-45 -78l-199 129l13 -235h-90l10 235l-197 -129z" />
<glyph unicode="+" horiz-adv-x="897" d="M59 639v104h334v363h113v-363h332v-104h-332v-377h-113v377h-334z" />
<glyph unicode="," horiz-adv-x="468" d="M117 -199q50 34 87.5 88t43.5 103q-1 0 -11 -1t-16 -1q-41 0 -68.5 28.5t-27.5 71.5q0 45 30.5 77t75.5 32q52 0 87.5 -41.5t35.5 -112.5q0 -89 -46 -170t-118 -133z" />
<glyph unicode="-" horiz-adv-x="548" d="M61 430v131h426v-131h-426z" />
<glyph unicode="." horiz-adv-x="468" d="M125 90q0 43 32 76t76 33t77.5 -33t33.5 -76q0 -44 -33.5 -77t-77.5 -33t-76 33t-32 77z" />
<glyph unicode="/" horiz-adv-x="507" d="M0 -41l393 1448h115l-393 -1448h-115z" />
<glyph unicode="0" horiz-adv-x="1052" d="M96 682q0 103 13.5 200t46 190t81 161.5t123 110.5t166.5 42t166.5 -42t123 -110.5t81 -161.5t46 -190t13.5 -200t-13.5 -200t-46 -190.5t-81 -162.5t-123 -111.5t-166.5 -42.5t-166.5 42.5t-123 111.5t-81 162.5t-46 190.5t-13.5 200zM264 682q0 -110 12 -202.5 t39.5 -177t81 -133t129.5 -48.5q75 0 128.5 48.5t81.5 133t40 177.5t12 202q0 111 -12 203t-39.5 176t-81 132t-129.5 48t-129.5 -48t-81 -132t-39.5 -176t-12 -203z" />
<glyph unicode="1" horiz-adv-x="645" d="M31 1028l327 338h144v-1366h-162v1151l-211 -225z" />
<glyph unicode="2" horiz-adv-x="1005" d="M92 1167q145 219 400 219q107 0 193.5 -42.5t139 -128.5t52.5 -201q0 -68 -25 -141.5t-55 -133t-113.5 -169.5t-140 -179t-195.5 -234q-7 -8 -10 -12h545v-145h-777v133q32 37 92 105q91 103 132 150.5t106 124t92 112t67.5 90.5t55.5 85t33 71t23.5 73.5t5.5 67.5 q0 106 -65.5 167.5t-158.5 61.5q-184 0 -288 -172z" />
<glyph unicode="3" horiz-adv-x="970" d="M59 203l109 96q48 -82 123 -130t170 -48q122 0 186 69.5t64 190.5q0 130 -74.5 189t-190.5 59q-88 0 -106 -2v149q18 -2 104 -2q109 0 178.5 57.5t69.5 169.5q0 116 -65 178t-170 62q-162 0 -279 -162l-102 92q63 100 164.5 157.5t226.5 57.5q173 0 280 -93.5t107 -268.5 q0 -121 -72.5 -207.5t-171.5 -109.5q99 -15 180.5 -107.5t81.5 -230.5q0 -175 -107.5 -284.5t-299.5 -109.5q-138 0 -244 64t-162 164z" />
<glyph unicode="4" horiz-adv-x="948" d="M47 350v142l496 874h207v-872h151v-144h-151v-350h-162v350h-541zM197 494h391v694z" />
<glyph unicode="5" horiz-adv-x="1009" d="M106 199l109 98q53 -88 122.5 -132t166.5 -44q111 0 179.5 87t68.5 212q0 142 -64.5 220.5t-173.5 78.5q-73 0 -131.5 -30t-116.5 -99l-121 43v733h699v-145h-537v-478q42 53 109 86t145 33q154 0 255.5 -117t101.5 -323q0 -194 -115 -320.5t-293 -126.5 q-144 0 -240.5 57.5t-163.5 166.5z" />
<glyph unicode="6" horiz-adv-x="1009" d="M96 682q0 113 16 214.5t52 192t89 156t131.5 103.5t174.5 38q104 0 185.5 -45t134.5 -124l-91 -115q-43 69 -95.5 104t-131.5 35t-138.5 -48t-93.5 -128.5t-50.5 -173.5t-16.5 -195v-43q39 81 121.5 142t181.5 61q157 0 258 -113t101 -323q0 -118 -45 -218t-136.5 -163.5 t-212.5 -63.5q-118 0 -205 58t-135.5 160t-71 223.5t-22.5 265.5zM264 506q3 -51 11.5 -99.5t28 -102t47 -93t72 -65t99.5 -25.5q59 0 105.5 26t74.5 69t42 94t14 106q0 153 -65 226t-171 73q-80 0 -147.5 -59t-110.5 -150z" />
<glyph unicode="7" horiz-adv-x="868" d="M53 1221v145h764v-113l-440 -1253h-174l430 1221h-580z" />
<glyph unicode="8" horiz-adv-x="997" d="M92 338q0 126 81.5 225.5t191.5 141.5q-104 38 -178 125t-74 208q0 86 32.5 154t87.5 109.5t123 63t144 21.5q75 0 143 -21.5t123.5 -63t88 -109.5t32.5 -154q0 -121 -74.5 -208t-179.5 -125q111 -42 191.5 -141t80.5 -226q0 -167 -111.5 -265t-293.5 -98 q-183 0 -295.5 98t-112.5 265zM258 356q0 -109 69 -172t173 -63q101 0 171 63.5t70 171.5q0 64 -29.5 119t-71 87.5t-79 51.5t-61.5 23q-19 -3 -47 -14.5t-62.5 -35.5t-63.5 -55.5t-49 -77.5t-20 -98zM276 1016q0 -48 18.5 -89.5t45 -68t59 -47.5t57.5 -31t44 -14 q19 4 43.5 14t57.5 31t59 47.5t44.5 68t18.5 89.5q0 103 -62 164t-161 61q-101 0 -162.5 -61t-61.5 -164z" />
<glyph unicode="9" horiz-adv-x="1009" d="M86 944q0 118 44.5 217.5t136.5 163.5t214 64q95 0 170 -39t123.5 -104.5t80 -157.5t45 -192t13.5 -214q0 -113 -16 -214.5t-51.5 -192t-88 -156t-131 -104t-175.5 -38.5q-205 0 -318 170l90 115q41 -69 94 -104t134 -35q79 0 139 48t94 129t50 174t16 194q0 25 -2 43 q-39 -81 -121 -142t-181 -61q-157 0 -258.5 113t-101.5 323zM252 948q0 -152 65 -225.5t170 -73.5q80 0 148.5 59.5t109.5 149.5q-3 51 -11.5 99.5t-27.5 102t-46 92.5t-71.5 65t-99.5 26q-79 0 -134.5 -45.5t-79 -110t-23.5 -139.5z" />
<glyph unicode=":" horiz-adv-x="462" d="M125 90q0 43 32 76t76 33t77.5 -33t33.5 -76q0 -44 -33.5 -77t-77.5 -33t-76 33t-32 77zM125 893q0 46 32 78.5t76 32.5q45 0 78 -33t33 -78q0 -43 -33.5 -75t-77.5 -32t-76 32t-32 75z" />
<glyph unicode=";" horiz-adv-x="466" d="M117 -195q50 32 87.5 87t43.5 104q-1 0 -11 -2t-16 -2q-41 0 -68.5 29t-27.5 73t30.5 75.5t75.5 31.5q52 0 87.5 -41t35.5 -111q0 -90 -45.5 -170.5t-118.5 -132.5zM125 895q0 44 32 76.5t76 32.5t77.5 -32.5t33.5 -76.5t-33.5 -76.5t-77.5 -32.5t-76 32.5t-32 76.5z" />
<glyph unicode="&#x3c;" horiz-adv-x="897" d="M59 633v104l779 377v-123l-652 -307l652 -303v-125z" />
<glyph unicode="=" horiz-adv-x="897" d="M59 434v105h779v-105h-779zM59 829v105h779v-105h-779z" />
<glyph unicode="&#x3e;" horiz-adv-x="897" d="M59 256v125l652 303l-652 307v123l779 -377v-104z" />
<glyph unicode="?" horiz-adv-x="794" d="M57 1231q130 155 340 155q154 0 247 -86.5t93 -216.5q0 -59 -17.5 -110t-45 -89t-61 -72t-67.5 -65t-61.5 -62t-45 -69t-17.5 -79q0 -64 47 -105l-123 -55q-67 67 -67 170q0 69 30.5 127t73.5 99t86 80.5t73.5 92t30.5 113.5q0 75 -53 129.5t-145 54.5q-142 0 -234 -119z M283 90q0 43 33 76t77 33t76.5 -33t32.5 -76q0 -44 -32.5 -77t-76.5 -33t-77 33t-33 77z" />
<glyph unicode="@" horiz-adv-x="1419" d="M72 471q0 162 61.5 316.5t162.5 268t238.5 182.5t282.5 69q235 0 382 -161t147 -415q0 -243 -100 -400t-228 -157q-74 0 -119.5 44.5t-50.5 111.5l-2 12q-48 -74 -119.5 -121t-155.5 -47q-110 0 -179.5 75.5t-69.5 217.5q0 140 57.5 268t157.5 207.5t215 79.5 q75 0 128 -43t76 -111l25 121h133l-119 -561q-4 -24 -4 -45q0 -102 78 -102q28 0 62 27.5t66.5 79.5t54.5 142.5t22 200.5q0 231 -127 368.5t-334 137.5q-176 0 -332 -109.5t-247 -286t-91 -368.5q0 -242 137.5 -395.5t358.5 -153.5q171 0 332 115l35 -53 q-178 -129 -375 -129q-247 0 -403 171t-156 443zM463 479q0 -90 40 -142t115 -52q133 0 248 174l66 307q-14 58 -55.5 101.5t-104.5 43.5q-88 0 -160.5 -68.5t-110.5 -166.5t-38 -197z" />
<glyph unicode="A" d="M16 0l412 1366h195l409 -1366h-176l-88 309h-487l-88 -309h-177zM315 455h418l-209 731z" />
<glyph unicode="B" horiz-adv-x="1058" d="M143 0v1366h455q159 0 248.5 -95t89.5 -253q0 -124 -58.5 -205.5t-150.5 -107.5q99 -15 165 -113t66 -223q0 -170 -90 -269.5t-258 -99.5h-467zM307 145h268q106 0 161 63t55 177q0 104 -55.5 173t-160.5 69h-268v-482zM307 772h260q100 0 150.5 61.5t50.5 161.5 q0 101 -50.5 163.5t-150.5 62.5h-260v-449z" />
<glyph unicode="C" horiz-adv-x="1093" d="M96 682q0 205 64 364.5t186 251t283 91.5q257 0 401 -267l-135 -65q-91 186 -266 186q-165 0 -265 -156.5t-100 -404.5q0 -246 100 -403.5t265 -157.5q90 0 159 55.5t109 147.5l135 -64q-31 -62 -66.5 -109.5t-83.5 -89t-112.5 -64t-140.5 -22.5q-161 0 -283 91t-186 251 t-64 365z" />
<glyph unicode="D" horiz-adv-x="1157" d="M143 0v1366h365q173 0 300 -90.5t190 -243.5t63 -350t-63 -350t-189.5 -242.5t-300.5 -89.5h-365zM307 145h201q184 0 283.5 149t99.5 388q0 157 -41.5 277t-129.5 191t-212 71h-201v-1076z" />
<glyph unicode="E" horiz-adv-x="946" d="M143 0v1366h703v-145h-539v-449h524v-145h-524v-482h539v-145h-703z" />
<glyph unicode="F" horiz-adv-x="923" d="M143 0v1366h703v-145h-539v-449h524v-145h-524v-627h-164z" />
<glyph unicode="G" horiz-adv-x="1155" d="M96 682q0 317 146 512t387 195q261 0 407 -259l-131 -67q-100 180 -276 180q-164 0 -264.5 -154.5t-100.5 -406.5q0 -251 100.5 -406t264.5 -155q82 0 150 33.5t108 83.5v317h-330v143h483v-524q-156 -199 -411 -199q-241 0 -387 195t-146 512z" />
<glyph unicode="H" horiz-adv-x="1177" d="M143 0v1366h164v-592h565v592h162v-1366h-162v631h-565v-631h-164z" />
<glyph unicode="I" horiz-adv-x="450" d="M143 0v1366h164v-1366h-164z" />
<glyph unicode="J" horiz-adv-x="817" d="M18 100l74 127q82 -106 201 -106q102 0 159.5 61.5t57.5 173.5v1010h164v-1014q0 -186 -101.5 -281.5t-267.5 -95.5q-176 0 -287 125z" />
<glyph unicode="K" horiz-adv-x="1044" d="M143 0v1366h164v-709l477 709h195l-459 -647l496 -719h-195l-399 602l-115 -166v-436h-164z" />
<glyph unicode="L" horiz-adv-x="847" d="M131 0v1366h164v-1221h496v-145h-660z" />
<glyph unicode="M" horiz-adv-x="1400" d="M143 0v1366h228l329 -1006l334 1006h223v-1366h-161v1106l-363 -1106h-63l-363 1106v-1106h-164z" />
<glyph unicode="N" horiz-adv-x="1173" d="M143 0v1366h164l561 -1020v1020h162v-1366h-156l-567 1040v-1040h-164z" />
<glyph unicode="O" horiz-adv-x="1230" d="M96 682q0 149 34.5 277.5t99.5 224t163.5 150.5t220.5 55q162 0 282 -95t179.5 -253.5t59.5 -358.5t-59.5 -358.5t-179.5 -253.5t-282 -95q-122 0 -220.5 55t-163.5 150.5t-99.5 224t-34.5 277.5zM264 682q0 -158 39.5 -283.5t120 -201.5t190.5 -76t191.5 76t121.5 201.5 t40 283.5q0 159 -40 285t-121.5 201t-191.5 75t-190.5 -75t-120 -200.5t-39.5 -285.5z" />
<glyph unicode="P" horiz-adv-x="999" d="M143 0v1366h416q92 0 165 -33t119.5 -89.5t70.5 -130t24 -157.5q0 -113 -41.5 -204t-129 -148t-208.5 -57h-252v-547h-164zM307 692h236q105 0 166 73t61 191q0 119 -61.5 192t-165.5 73h-236v-529z" />
<glyph unicode="Q" horiz-adv-x="1230" d="M96 682q0 149 34.5 277.5t99.5 224t163.5 150.5t220.5 55q162 0 282 -95t179.5 -253.5t59.5 -358.5q0 -173 -46 -317t-133 -240l78 -119l-114 -74l-70 107q-106 -64 -236 -64q-122 0 -220.5 55t-163.5 150.5t-99.5 224t-34.5 277.5zM264 682q0 -158 39.5 -283.5 t120 -201.5t190.5 -76q85 0 152 45l-162 252l119 71l141 -221q103 154 103 414q0 159 -40 285t-121.5 201t-191.5 75t-190.5 -75t-120 -200.5t-39.5 -285.5z" />
<glyph unicode="R" horiz-adv-x="1044" d="M143 0v1366h418q166 0 271.5 -111.5t105.5 -296.5q0 -170 -79.5 -268t-192.5 -119l286 -571h-184l-264 547h-197v-547h-164zM307 690h236q104 0 165.5 73.5t61.5 192.5t-61.5 192t-165.5 73h-236v-531z" />
<glyph unicode="S" horiz-adv-x="966" d="M59 147l91 125q56 -67 139.5 -109t179.5 -42q122 0 186 65t64 160q0 53 -21 96t-57 73.5t-82.5 57t-97.5 50.5t-102.5 49.5t-98 58.5t-82.5 73t-57 98t-21 128q0 156 111.5 257.5t282.5 101.5q227 0 364 -146l-84 -123q-111 123 -285 123q-96 0 -159.5 -57t-63.5 -148 q0 -51 26.5 -93.5t70 -70.5t99 -58t114 -56t114 -64t99 -81.5t70 -110t26.5 -148.5q0 -77 -25.5 -144.5t-75 -121t-131 -84.5t-184.5 -31q-255 0 -410 172z" />
<glyph unicode="T" horiz-adv-x="915" d="M51 1221v145h813v-145h-325v-1221h-162v1221h-326z" />
<glyph unicode="U" horiz-adv-x="1165" d="M143 442v924h164v-924q0 -158 72 -239.5t205 -81.5q132 0 203 81.5t71 239.5v924h164v-924q0 -224 -115.5 -345.5t-322.5 -121.5t-324 121.5t-117 345.5z" />
<glyph unicode="V" d="M16 1366h177l331 -1169l332 1169h176l-409 -1366h-195z" />
<glyph unicode="W" horiz-adv-x="1468" d="M33 1366h174l225 -1112l234 1112h137l233 -1112l226 1112h174l-306 -1366h-174l-223 1077l-223 -1077h-172z" />
<glyph unicode="X" d="M16 0l410 698l-387 668h190l295 -537l295 537h191l-387 -668l409 -698h-188l-320 565l-319 -565h-189z" />
<glyph unicode="Y" horiz-adv-x="1026" d="M10 1366h183l321 -631l322 631h180l-422 -788v-578h-162v578z" />
<glyph unicode="Z" horiz-adv-x="948" d="M82 0v139l575 1082h-575v145h770v-135l-578 -1086h592v-145h-784z" />
<glyph unicode="[" horiz-adv-x="434" d="M76 -389v1778h323v-109h-209v-1561h209v-108h-323z" />
<glyph unicode="\" horiz-adv-x="507" d="M0 1407h117l393 -1448h-117z" />
<glyph unicode="]" horiz-adv-x="434" d="M35 -281h209v1561h-209v109h323v-1778h-323v108z" />
<glyph unicode="^" horiz-adv-x="780" d="M39 682l295 684h112l295 -684h-118l-234 567l-231 -567h-119z" />
<glyph unicode="_" horiz-adv-x="864" d="M-6 -82h876v-108h-876v108z" />
<glyph unicode="`" horiz-adv-x="380" d="M0 1434h150l231 -295h-105z" />
<glyph unicode="a" horiz-adv-x="925" d="M84 305q0 150 87 238t212 88q172 0 262 -129v174q0 101 -53 156t-150 55q-139 0 -249 -121l-66 102q137 146 338 146q152 0 240 -80t88 -242v-692h-148v109q-46 -67 -115 -100.5t-147 -33.5q-125 0 -212 90t-87 240zM233 303q0 -95 54 -158t145 -63q66 0 122.5 30.5 t90.5 92.5v194q-34 63 -90 94t-123 31q-91 0 -145 -63t-54 -158z" />
<glyph unicode="b" horiz-adv-x="985" d="M135 0v1366h146v-520q45 81 114.5 124.5t147.5 43.5q165 0 259.5 -142.5t94.5 -377.5q0 -236 -94.5 -377.5t-259.5 -141.5q-77 0 -148 45t-114 121v-141h-146zM281 266q30 -67 93.5 -113.5t131.5 -46.5q78 0 132.5 53.5t79.5 139t25 195.5q0 171 -60.5 280t-176.5 109 q-68 0 -131 -48.5t-94 -115.5v-453z" />
<glyph unicode="c" horiz-adv-x="833" d="M86 496q0 225 112 371.5t300 146.5q177 0 282 -131l-80 -101q-74 101 -190 101q-127 0 -198.5 -110.5t-71.5 -276.5t71.5 -278t198.5 -112q114 0 190 101l80 -101q-102 -131 -282 -131q-125 0 -219.5 69.5t-143.5 187t-49 264.5z" />
<glyph unicode="d" horiz-adv-x="985" d="M86 494q0 235 95.5 377.5t260.5 142.5q79 0 148 -43.5t112 -124.5v520h148v-1366h-148v141q-43 -76 -113 -121t-147 -45q-166 0 -261 141.5t-95 377.5zM240 494q0 -169 61.5 -278.5t177.5 -109.5q69 0 131.5 46.5t91.5 113.5v455q-29 67 -92 114.5t-131 47.5 q-116 0 -177.5 -109.5t-61.5 -279.5z" />
<glyph unicode="e" horiz-adv-x="960" d="M86 496q0 144 47.5 261t140 187t215.5 70q127 0 217 -71t132.5 -187t42.5 -264v-46h-643q5 -154 80.5 -251t205.5 -97q66 0 128.5 32t107.5 91l78 -88q-129 -158 -326 -158q-195 0 -310.5 145t-115.5 376zM238 557h497q-1 60 -15 116t-42 106.5t-78 81t-115 30.5 q-62 0 -111 -31.5t-77 -82.5t-42.5 -107t-16.5 -113z" />
<glyph unicode="f" horiz-adv-x="518" d="M39 860v129h131v119q0 130 66 204t182 74q111 0 176 -65l-57 -109q-40 43 -95 43q-62 0 -93.5 -38.5t-31.5 -108.5v-119h166v-129h-166v-860h-147v860h-131z" />
<glyph unicode="g" horiz-adv-x="985" d="M86 500q0 234 95 374t261 140q79 0 148 -43.5t112 -124.5v143h148v-995q0 -107 -31.5 -186t-87 -123.5t-123 -65t-149.5 -20.5q-104 0 -183 28.5t-149 96.5l68 120q99 -114 258 -114q111 0 180 65t69 199v164q-44 -77 -113.5 -123.5t-146.5 -46.5q-166 0 -261 138.5 t-95 373.5zM240 500q0 -109 25.5 -193.5t80.5 -136t133 -51.5q68 0 130 48t93 116v438q-31 67 -93 114.5t-130 47.5q-116 0 -177.5 -107t-61.5 -276z" />
<glyph unicode="h" horiz-adv-x="954" d="M135 0v1366h146v-518q46 69 124.5 117.5t163.5 48.5q127 0 188.5 -65t61.5 -201v-748h-147v707q0 94 -40.5 135t-117.5 41q-69 0 -132.5 -46.5t-100.5 -111.5v-725h-146z" />
<glyph unicode="i" horiz-adv-x="415" d="M106 1233q0 41 30.5 70.5t70.5 29.5q42 0 71 -29t29 -71t-29 -71t-71 -29q-40 0 -70.5 29.5t-30.5 70.5zM135 0v989h146v-989h-146z" />
<glyph unicode="j" horiz-adv-x="415" d="M-133 -332l53 113q38 -51 100 -51q115 0 115 149v1110h146v-1110q0 -280 -248 -280q-103 0 -166 69zM106 1233q0 41 30.5 70.5t70.5 29.5q42 0 71 -29t29 -71t-29 -71t-71 -29q-40 0 -70.5 29.5t-30.5 70.5z" />
<glyph unicode="k" horiz-adv-x="899" d="M135 0v1366h146v-913l413 536h172l-344 -444l346 -545h-174l-272 446l-141 -178v-268h-146z" />
<glyph unicode="l" horiz-adv-x="415" d="M135 0v1366h146v-1366h-146z" />
<glyph unicode="m" horiz-adv-x="1419" d="M135 0v989h146v-141q34 62 111.5 114t160.5 52q93 0 151 -48t70 -128q39 72 117.5 124t163.5 52q229 0 229 -258v-756h-147v715q0 168 -138 168q-64 0 -124 -46.5t-93 -111.5v-725h-147v715q0 168 -137 168q-64 0 -123 -46.5t-94 -111.5v-725h-146z" />
<glyph unicode="n" horiz-adv-x="954" d="M135 0v989h146v-141q46 69 124.5 117.5t163.5 48.5q250 0 250 -269v-745h-147v702q0 96 -40.5 138.5t-117.5 42.5q-69 0 -132.5 -46.5t-100.5 -111.5v-725h-146z" />
<glyph unicode="o" horiz-adv-x="978" d="M86 496q0 106 26.5 199t75.5 164.5t127 113t174 41.5q128 0 221.5 -72t138 -187.5t44.5 -258.5t-44.5 -259t-138 -189t-221.5 -73q-127 0 -220.5 73t-138 189t-44.5 259zM242 496q0 -78 15 -146.5t44 -123.5t77.5 -87.5t110.5 -32.5q63 0 112 32.5t78.5 87.5t44.5 123.5 t15 146.5q0 77 -15 145t-44.5 123t-78.5 87t-112 32q-82 0 -139.5 -56.5t-82.5 -141.5t-25 -189z" />
<glyph unicode="p" horiz-adv-x="980" d="M135 -377v1366h146v-141q43 76 114 121t148 45q165 0 259.5 -141t94.5 -377q0 -235 -94.5 -378t-259.5 -143q-78 0 -147.5 43.5t-114.5 124.5v-520h-146zM281 270q31 -67 94 -115.5t131 -48.5q116 0 176.5 109.5t60.5 280.5q0 110 -25 195.5t-79.5 138.5t-132.5 53 q-68 0 -131.5 -46.5t-93.5 -113.5v-453z" />
<glyph unicode="q" horiz-adv-x="980" d="M84 496q0 236 94.5 377t259.5 141q79 0 149 -45t113 -121v141h148v-1366h-148v520q-45 -81 -114.5 -124.5t-147.5 -43.5q-165 0 -259.5 143t-94.5 378zM238 496q0 -171 60.5 -280.5t176.5 -109.5q68 0 131 48.5t94 115.5v453q-30 67 -93.5 113.5t-131.5 46.5 q-78 0 -132.5 -53t-79.5 -138.5t-25 -195.5z" />
<glyph unicode="r" horiz-adv-x="595" d="M135 0v989h146v-158q50 82 121.5 130.5t158.5 48.5v-150q-32 4 -49 4q-66 0 -132.5 -48.5t-98.5 -113.5v-702h-146z" />
<glyph unicode="s" horiz-adv-x="794" d="M55 117l74 102q45 -55 113.5 -90t144.5 -35q87 0 139 44.5t52 115.5q0 47 -27 82t-71 57.5t-96.5 43t-105 45.5t-96.5 57.5t-71 85.5t-27 123q0 114 85.5 190t229.5 76q186 0 303 -127l-69 -101q-37 50 -98.5 79.5t-133.5 29.5q-80 0 -128 -40.5t-48 -102.5 q0 -42 27.5 -74.5t71 -54t96.5 -42t106 -46.5t96.5 -59.5t71 -89.5t27.5 -128q0 -125 -90 -204t-240 -79q-215 0 -336 142z" />
<glyph unicode="t" horiz-adv-x="538" d="M33 860v129h131v271h147v-271h166v-129h-166v-635q0 -119 80 -119q55 0 86 39l45 -110q-63 -60 -162 -60q-196 0 -196 224v661h-131z" />
<glyph unicode="u" horiz-adv-x="952" d="M135 242v747h146v-704q0 -96 40.5 -137.5t118.5 -41.5q69 0 132.5 45t99.5 109v729h147v-989h-147v137q-48 -69 -124.5 -115.5t-162.5 -46.5q-127 0 -188.5 66t-61.5 201z" />
<glyph unicode="v" horiz-adv-x="837" d="M12 989h160l248 -813l248 813h157l-325 -989h-162z" />
<glyph unicode="w" horiz-adv-x="1308" d="M27 989h153l195 -790l209 790h137l213 -790l194 790h156l-266 -989h-150l-213 795l-213 -795h-149z" />
<glyph unicode="x" horiz-adv-x="833" d="M25 0l303 504l-287 485h164l213 -377l211 377h164l-287 -485l303 -504h-164l-227 397l-230 -397h-163z" />
<glyph unicode="y" horiz-adv-x="837" d="M12 989h160l248 -811l248 811h157l-397 -1196q-34 -105 -93.5 -149.5t-152.5 -44.5q-58 0 -98 14l25 131q22 -14 65 -14t70 21.5t47 76.5l51 152z" />
<glyph unicode="z" horiz-adv-x="794" d="M88 0v115l430 745h-430v129h610v-112l-430 -748h439v-129h-619z" />
<glyph unicode="{" horiz-adv-x="473" d="M12 451v98q51 0 79 41t28 102v453q0 107 67.5 175.5t157.5 68.5h94v-109h-94q-45 0 -78 -38t-33 -97v-465q0 -141 -92 -180q92 -39 92 -181v-464q0 -58 33 -97t78 -39h94v-108h-94q-90 0 -157.5 68.5t-67.5 175.5v452q0 61 -28 102.5t-79 41.5z" />
<glyph unicode="|" horiz-adv-x="397" d="M143 -41v1448h111v-1448h-111z" />
<glyph unicode="}" horiz-adv-x="473" d="M35 -281h94q45 0 78 39t33 97v464q0 142 92 181q-92 39 -92 180v465q0 59 -33 97t-78 38h-94v109h94q90 0 158.5 -69t68.5 -175v-453q0 -61 28 -102t79 -41v-98q-51 0 -79 -41.5t-28 -102.5v-452q0 -106 -68.5 -175t-158.5 -69h-94v108z" />
<glyph unicode="~" horiz-adv-x="919" d="M55 879q5 64 12 115t19 110t30.5 102.5t44.5 81t63.5 57t84.5 19.5q54 0 92.5 -29t57.5 -73t36 -94.5t28.5 -94.5t34 -73t54.5 -29q61 0 92.5 95t49.5 300l110 -10q-4 -54 -9.5 -98t-15 -96.5t-21.5 -92.5t-31.5 -79.5t-43.5 -65t-57.5 -41t-73.5 -15.5 q-63 0 -105.5 40.5t-62 98t-35.5 115t-39.5 98t-60.5 40.5q-63 0 -94 -96t-47 -298z" />
<glyph unicode="&#xa1;" horiz-adv-x="466" d="M125 899q0 45 32 78t76 33t77.5 -33.5t33.5 -77.5q0 -43 -33.5 -75.5t-77.5 -32.5t-76 32.5t-32 75.5zM141 -377l31 987h123l31 -987h-185z" />
<glyph unicode="&#xa2;" horiz-adv-x="833" d="M86 496q0 199 89 339.5t243 170.5v151h117v-145q149 -10 245 -129l-80 -101q-67 90 -165 99v-775q94 9 165 101l80 -101q-90 -118 -245 -129v-182h-117v189q-154 30 -243 171t-89 341zM240 496q0 -133 46 -233.5t132 -137.5v739q-85 -37 -131.5 -137t-46.5 -231z" />
<glyph unicode="&#xa3;" horiz-adv-x="921" d="M51 553v106h176q-30 44 -38 55.5t-32 53t-32.5 67.5t-17.5 69t-9 87q0 163 113.5 279t277.5 116q125 0 217 -61t132 -170l-129 -70q-25 72 -78.5 118t-128.5 46q-95 0 -162.5 -71t-67.5 -191q0 -55 15 -106.5t29.5 -78t48.5 -77t43 -66.5h231v-106h-184q12 -43 12 -96 q0 -82 -40.5 -157.5t-104.5 -125.5q51 21 92 21q58 0 133.5 -38t120.5 -38q52 0 97.5 23t68.5 53l63 -127q-35 -41 -100 -68t-140 -27q-53 0 -97 14t-69 31t-61.5 31t-77.5 14q-82 0 -200 -77l-58 120q105 57 165 142t60 178q0 59 -28 127h-240z" />
<glyph unicode="&#xa4;" horiz-adv-x="1069" d="M74 281l114 114q-102 127 -102 287q0 163 102 287l-114 116l57 58l117 -115q120 102 287 102q162 0 286 -102l115 115l59 -58l-114 -116q102 -124 102 -287q0 -160 -102 -287l114 -114l-59 -60l-115 117q-124 -105 -286 -105q-163 0 -287 105l-117 -117zM184 682 q0 -145 103 -247.5t248 -102.5t247.5 102.5t102.5 247.5q0 146 -102.5 248t-247.5 102t-248 -102t-103 -248z" />
<glyph unicode="&#xa5;" horiz-adv-x="1026" d="M10 1366h183l321 -631l322 631h180l-367 -684h330v-104h-385v-222h385v-104h-385v-252h-162v252h-387v104h387v222h-387v104h330z" />
<glyph unicode="&#xa6;" horiz-adv-x="397" d="M143 -41v647h111v-647h-111zM143 760v647h111v-647h-111z" />
<glyph unicode="&#xa7;" horiz-adv-x="798" d="M57 -25l72 99q43 -52 109 -89.5t147 -37.5q86 0 139.5 46.5t53.5 119.5q0 49 -27 85.5t-71 60.5t-96.5 45t-105 46t-96.5 57t-71 84t-27 121q0 89 57 155.5t148 88.5q-105 54 -155 118t-50 152q0 113 86 186.5t223 73.5q194 0 309 -129l-69 -90q-92 109 -232 109 q-78 0 -127 -41.5t-49 -108.5q0 -45 27.5 -79t71 -56t96.5 -43t106 -46.5t96.5 -58.5t71 -88t27.5 -126q0 -79 -43 -145t-127 -103q85 -49 127.5 -111t42.5 -151q0 -127 -92.5 -206t-237.5 -79q-115 0 -193.5 36.5t-140.5 104.5zM221 631q0 -70 53.5 -113t167.5 -92 q140 65 140 182q0 42 -15.5 75.5t-43.5 57t-54 38t-61 28.5q-187 -42 -187 -176z" />
<glyph unicode="&#xa8;" horiz-adv-x="548" d="M4 1237q0 37 27 64.5t65 27.5q37 0 64.5 -27.5t27.5 -64.5q0 -38 -27.5 -65t-64.5 -27q-38 0 -65 27t-27 65zM360 1237q0 37 27.5 64.5t65.5 27.5t65 -27.5t27 -64.5q0 -38 -27 -65t-65 -27t-65.5 27t-27.5 65z" />
<glyph unicode="&#xa9;" horiz-adv-x="1593" d="M90 684q0 192 95 355t258 257.5t354 94.5q144 0 275 -56t225 -150.5t150 -225.5t56 -275q0 -143 -56 -274t-150 -226t-225 -151t-275 -56q-191 0 -354 95t-258 258t-95 354zM152 684q0 -130 51.5 -249t138.5 -206t206 -138.5t249 -51.5t249.5 51.5t206 138.5t138 206 t51.5 249q0 174 -87 322.5t-235.5 235.5t-322.5 87q-130 0 -249 -51.5t-206 -138t-138.5 -206t-51.5 -249.5zM375 686q0 187 124 311.5t304 124.5q183 0 297 -133l-51 -51q-40 54 -107 85.5t-139 31.5q-146 0 -250 -103t-104 -266q0 -158 105 -265.5t249 -107.5 q73 0 139.5 33t106.5 88l51 -51q-116 -135 -297 -135q-179 0 -303.5 126.5t-124.5 311.5z" />
<glyph unicode="&#xaa;" horiz-adv-x="673" d="M70 864q0 98 58.5 154.5t143.5 56.5q118 0 181 -82v109q0 65 -37.5 99t-98.5 34q-99 0 -170 -84l-49 78q95 98 236 98q109 0 171 -56t62 -173v-430h-114v69q-63 -86 -181 -86q-85 0 -143.5 58t-58.5 155zM184 866q0 -61 35 -99t94 -38q96 0 140 78v117q-43 77 -140 77 q-59 0 -94 -37.5t-35 -97.5z" />
<glyph unicode="&#xab;" horiz-adv-x="782" d="M61 498l256 362h138l-256 -362l256 -369h-138zM328 498l256 362h137l-256 -362l256 -369h-137z" />
<glyph unicode="&#xac;" horiz-adv-x="903" d="M59 829v105h779v-500h-109v395h-670z" />
<glyph unicode="&#xad;" horiz-adv-x="548" d="M61 430v131h426v-131h-426z" />
<glyph unicode="&#xae;" horiz-adv-x="1011" d="M72 952q0 181 127 307.5t307 126.5q119 0 219 -57.5t157.5 -157.5t57.5 -219q0 -180 -126.5 -307t-307.5 -127q-180 0 -307 127t-127 307zM131 952q0 -156 109.5 -265t265.5 -109t265.5 109t109.5 265q0 158 -109 266.5t-266 108.5t-266 -108.5t-109 -266.5zM340 702v498 h203q65 0 111 -42t46 -109q0 -72 -46 -110t-81 -38l134 -199h-82l-129 197h-90v-197h-66zM406 958h137q34 0 62 27t28 64q0 40 -28 67t-62 27h-137v-185z" />
<glyph unicode="&#xaf;" horiz-adv-x="626" d="M0 1210v95h627v-95h-627z" />
<glyph unicode="&#xb0;" horiz-adv-x="591" d="M47 1137q0 103 72.5 176t175.5 73t176.5 -73t73.5 -176q0 -101 -73.5 -173.5t-176.5 -72.5t-175.5 72.5t-72.5 173.5zM143 1137q0 -62 44.5 -106t107.5 -44t108.5 44.5t45.5 105.5q0 63 -45.5 108t-108.5 45t-107.5 -45t-44.5 -108z" />
<glyph unicode="&#xb1;" horiz-adv-x="897" d="M59 45v105h779v-105h-779zM59 651v105h334v362h113v-362h332v-105h-332v-377h-113v377h-334z" />
<glyph unicode="&#xb2;" horiz-adv-x="669" d="M76 1563q90 131 262 131q110 0 183 -60.5t73 -169.5q0 -35 -9 -69.5t-32 -74t-46.5 -73t-71 -85.5t-85 -91.5t-106.5 -109.5h354v-99h-514v90q239 235 315 329t76 179q0 65 -40.5 100t-100.5 35t-109.5 -28t-77.5 -76z" />
<glyph unicode="&#xb3;" horiz-adv-x="669" d="M63 983l74 72q31 -50 81.5 -79.5t109.5 -29.5q75 0 115 39t40 107q0 76 -48 109.5t-122 33.5q-57 0 -67 -2v98q12 -2 63 -2q74 0 118 33.5t44 99.5q0 65 -40.5 99t-106.5 34q-107 0 -181 -96l-69 66q42 60 108.5 94.5t149.5 34.5q116 0 186 -57t70 -162q0 -74 -46.5 -125 t-109.5 -64q64 -8 116 -63t52 -138q0 -106 -71.5 -171.5t-196.5 -65.5q-91 0 -161.5 37.5t-107.5 97.5z" />
<glyph unicode="&#xb4;" horiz-adv-x="380" d="M0 1139l233 295h148l-277 -295h-104z" />
<glyph unicode="&#xb6;" horiz-adv-x="919" d="M55 1014q0 146 103.5 249t249.5 103h362v-1571h-88v1481h-184v-1481h-90v867q-146 0 -249.5 103t-103.5 249z" />
<glyph unicode="&#xb7;" horiz-adv-x="468" d="M125 502q0 43 32 75.5t76 32.5t77.5 -32.5t33.5 -75.5q0 -44 -33.5 -77.5t-77.5 -33.5t-76 33t-32 78z" />
<glyph unicode="&#xb8;" horiz-adv-x="378" d="M0 -330l37 76q66 -57 143 -57q45 0 78 23.5t33 62.5q0 33 -18 52t-50 19q-39 0 -67 -32l-66 36l62 173h90l-54 -136q27 21 68 21q53 0 88 -37t35 -98q0 -73 -56.5 -118.5t-140.5 -45.5q-106 0 -182 61z" />
<glyph unicode="&#xb9;" horiz-adv-x="460" d="M29 1466l213 215h104v-819h-121v666l-127 -135z" />
<glyph unicode="&#xba;" horiz-adv-x="712" d="M72 989q0 143 76 240.5t206 97.5q133 0 209 -97.5t76 -240.5t-76 -240.5t-209 -97.5q-130 0 -206 97.5t-76 240.5zM190 989q0 -104 42.5 -172.5t121.5 -68.5q82 0 125 68t43 173t-43 172.5t-125 67.5q-80 0 -122 -68t-42 -172z" />
<glyph unicode="&#xbb;" horiz-adv-x="782" d="M61 129l256 369l-256 362h138l256 -362l-256 -369h-138zM328 129l256 369l-256 362h137l256 -362l-256 -369h-137z" />
<glyph unicode="&#xbc;" horiz-adv-x="1378" d="M29 1151l213 215h104v-819h-121v665l-127 -135zM244 0l714 1366h99l-717 -1366h-96zM766 207v92l309 520h154v-516h96v-96h-96v-207h-117v207h-346zM877 303h235v395z" />
<glyph unicode="&#xbd;" horiz-adv-x="1449" d="M29 1151l213 215h104v-819h-121v665l-127 -135zM244 0l714 1366h99l-717 -1366h-96zM856 700q90 131 262 131q110 0 183 -60t73 -169q0 -42 -16 -86.5t-39.5 -84t-74 -98.5t-94.5 -105t-126 -130h354v-98h-514v90q239 235 315 329t76 179q0 65 -40.5 100t-100.5 35 t-109 -28t-77 -76z" />
<glyph unicode="&#xbe;" horiz-adv-x="1527" d="M63 668l74 71q31 -50 81.5 -79t109.5 -29q75 0 115 39t40 106q0 76 -48 110t-122 34q-57 0 -67 -2v98q12 -2 63 -2q74 0 118 33.5t44 99.5q0 65 -40.5 99t-106.5 34q-107 0 -181 -96l-69 65q42 60 108.5 94.5t149.5 34.5q116 0 186 -57t70 -162q0 -74 -46.5 -124.5 t-109.5 -63.5q64 -8 116 -63t52 -138q0 -106 -71.5 -172t-196.5 -66q-91 0 -161.5 38t-107.5 98zM393 0l715 1366h98l-717 -1366h-96zM915 207v92l310 520h153v-516h97v-96h-97v-207h-116v207h-347zM1026 303h236v395z" />
<glyph unicode="&#xbf;" horiz-adv-x="681" d="M57 -98q0 59 17.5 110.5t45.5 89t61.5 72t67 65.5t61.5 62t45.5 69t17.5 79q0 63 -47 104l123 55q67 -67 67 -170q0 -69 -30.5 -127t-73.5 -99t-86.5 -80.5t-74 -92t-30.5 -113.5q0 -75 53.5 -129.5t145.5 -54.5q77 0 132 29.5t101 89.5l84 -107q-129 -157 -340 -157 q-153 0 -246.5 87t-93.5 218zM293 899q0 45 32 78t76 33t77.5 -33.5t33.5 -77.5q0 -43 -33.5 -75.5t-77.5 -32.5t-76 32.5t-32 75.5z" />
<glyph unicode="&#xc0;" d="M16 0l412 1366h195l409 -1366h-176l-88 309h-487l-88 -309h-177zM264 1786h150l231 -295h-104zM315 455h418l-209 731z" />
<glyph unicode="&#xc1;" d="M16 0l412 1366h195l409 -1366h-176l-88 309h-487l-88 -309h-177zM315 455h418l-209 731zM408 1491l233 295h147l-276 -295h-104z" />
<glyph unicode="&#xc2;" d="M16 0l412 1366h195l409 -1366h-176l-88 309h-487l-88 -309h-177zM289 1491l164 295h143l170 -295h-94l-148 215l-141 -215h-94zM315 455h418l-209 731z" />
<glyph unicode="&#xc3;" d="M16 0l412 1366h195l409 -1366h-176l-88 309h-487l-88 -309h-177zM250 1499q0 122 44.5 198.5t129.5 76.5q36 0 63.5 -20t43 -48t29.5 -56.5t32 -48.5t41 -20q39 0 61.5 45t22.5 135h86q0 -122 -44.5 -198t-129.5 -76q-44 0 -75.5 30t-46 66t-37 66t-50.5 30 q-37 0 -60.5 -45t-23.5 -135h-86zM315 455h418l-209 731z" />
<glyph unicode="&#xc4;" d="M16 0l412 1366h195l409 -1366h-176l-88 309h-487l-88 -309h-177zM256 1583q0 37 27 64.5t65 27.5q37 0 64.5 -27.5t27.5 -64.5q0 -38 -27.5 -65t-64.5 -27q-38 0 -65 27t-27 65zM315 455h418l-209 731zM612 1583q0 37 27.5 64.5t65.5 27.5t65 -27.5t27 -64.5 q0 -38 -27 -65t-65 -27t-65.5 27t-27.5 65z" />
<glyph unicode="&#xc5;" d="M16 0l412 1366h195l409 -1366h-176l-88 309h-487l-88 -309h-177zM315 455h418l-209 731zM340 1606q0 76 54.5 130t131.5 54t131 -54t54 -130q0 -77 -54.5 -132t-130.5 -55t-131 55t-55 132zM418 1606q0 -46 32 -77.5t76 -31.5t75.5 31.5t31.5 77.5q0 44 -31.5 76 t-75.5 32t-76 -32t-32 -76z" />
<glyph unicode="&#xc6;" horiz-adv-x="1540" d="M23 0l649 1366h770v-145h-541v-449h526v-145h-526v-482h541v-145h-703v309h-399l-141 -309h-176zM399 455h340v731z" />
<glyph unicode="&#xc7;" horiz-adv-x="1093" d="M96 682q0 205 64 364.5t186 251t283 91.5q257 0 401 -267l-135 -65q-91 186 -266 186q-165 0 -265 -156.5t-100 -404.5q0 -246 100 -403.5t265 -157.5q90 0 159 55.5t109 147.5l135 -64q-138 -271 -379 -283l-30 -81q26 20 67 20q53 0 88 -37t35 -98q0 -73 -56.5 -118.5 t-140.5 -45.5q-106 0 -182 61l37 76q66 -57 143 -57q45 0 78 23.5t33 62.5q0 33 -18 52.5t-50 19.5q-38 0 -67 -33l-66 37l43 121q-217 26 -344 218.5t-127 483.5z" />
<glyph unicode="&#xc8;" horiz-adv-x="946" d="M143 0v1366h703v-145h-539v-449h524v-145h-524v-482h539v-145h-703zM238 1786h149l231 -295h-104z" />
<glyph unicode="&#xc9;" horiz-adv-x="946" d="M143 0v1366h703v-145h-539v-449h524v-145h-524v-482h539v-145h-703zM379 1491l233 295h148l-277 -295h-104z" />
<glyph unicode="&#xca;" horiz-adv-x="946" d="M143 0v1366h703v-145h-539v-449h524v-145h-524v-482h539v-145h-703zM258 1491l164 295h143l170 -295h-94l-147 215l-142 -215h-94z" />
<glyph unicode="&#xcb;" horiz-adv-x="946" d="M143 0v1366h703v-145h-539v-449h524v-145h-524v-482h539v-145h-703zM225 1583q0 37 27 64.5t65 27.5q37 0 65 -27.5t28 -64.5q0 -38 -28 -65t-65 -27q-38 0 -65 27t-27 65zM582 1583q0 37 27 64.5t65 27.5t65 -27.5t27 -64.5q0 -38 -27 -65t-65 -27t-65 27t-27 65z" />
<glyph unicode="&#xcc;" horiz-adv-x="450" d="M-37 1786h150l231 -295h-104zM143 0v1366h164v-1366h-164z" />
<glyph unicode="&#xcd;" horiz-adv-x="450" d="M109 1491l233 295h147l-276 -295h-104zM143 0v1366h164v-1366h-164z" />
<glyph unicode="&#xce;" horiz-adv-x="450" d="M-12 1491l164 295h143l170 -295h-94l-148 215l-141 -215h-94zM143 0v1366h164v-1366h-164z" />
<glyph unicode="&#xcf;" horiz-adv-x="450" d="M-43 1583q0 37 27 64.5t65 27.5q37 0 64.5 -27.5t27.5 -64.5q0 -38 -27.5 -65t-64.5 -27q-38 0 -65 27t-27 65zM143 0v1366h164v-1366h-164zM313 1583q0 37 27.5 64.5t65.5 27.5t65 -27.5t27 -64.5q0 -38 -27 -65t-65 -27t-65.5 27t-27.5 65z" />
<glyph unicode="&#xd0;" horiz-adv-x="1206" d="M33 614v119h160v633h364q173 0 300 -90.5t190 -243.5t63 -350t-63 -350t-189.5 -242.5t-300.5 -89.5h-364v614h-160zM356 145h201q184 0 283.5 149t99.5 388q0 157 -41.5 277t-129.5 191t-212 71h-201v-488h254v-119h-254v-469z" />
<glyph unicode="&#xd1;" horiz-adv-x="1173" d="M143 0v1366h164l561 -1020v1020h162v-1366h-156l-567 1040v-1040h-164zM305 1499q0 122 44.5 198.5t129.5 76.5q36 0 63.5 -20t43 -48t29.5 -56.5t32 -48.5t41 -20q39 0 61.5 45t22.5 135h86q0 -122 -44.5 -198t-129.5 -76q-44 0 -75.5 30t-46 66t-37 66t-50.5 30 q-37 0 -60.5 -45t-23.5 -135h-86z" />
<glyph unicode="&#xd2;" horiz-adv-x="1230" d="M96 682q0 149 34.5 277.5t99.5 224t163.5 150.5t220.5 55q162 0 282 -95t179.5 -253.5t59.5 -358.5t-59.5 -358.5t-179.5 -253.5t-282 -95q-122 0 -220.5 55t-163.5 150.5t-99.5 224t-34.5 277.5zM264 682q0 -158 39.5 -283.5t120 -201.5t190.5 -76t191.5 76t121.5 201.5 t40 283.5q0 159 -40 285t-121.5 201t-191.5 75t-190.5 -75t-120 -200.5t-39.5 -285.5zM356 1786h150l231 -295h-104z" />
<glyph unicode="&#xd3;" horiz-adv-x="1230" d="M96 682q0 149 34.5 277.5t99.5 224t163.5 150.5t220.5 55q162 0 282 -95t179.5 -253.5t59.5 -358.5t-59.5 -358.5t-179.5 -253.5t-282 -95q-122 0 -220.5 55t-163.5 150.5t-99.5 224t-34.5 277.5zM264 682q0 -158 39.5 -283.5t120 -201.5t190.5 -76t191.5 76t121.5 201.5 t40 283.5q0 159 -40 285t-121.5 201t-191.5 75t-190.5 -75t-120 -200.5t-39.5 -285.5zM498 1491l233 295h148l-277 -295h-104z" />
<glyph unicode="&#xd4;" horiz-adv-x="1230" d="M96 682q0 149 34.5 277.5t99.5 224t163.5 150.5t220.5 55q162 0 282 -95t179.5 -253.5t59.5 -358.5t-59.5 -358.5t-179.5 -253.5t-282 -95q-122 0 -220.5 55t-163.5 150.5t-99.5 224t-34.5 277.5zM264 682q0 -158 39.5 -283.5t120 -201.5t190.5 -76t191.5 76t121.5 201.5 t40 283.5q0 159 -40 285t-121.5 201t-191.5 75t-190.5 -75t-120 -200.5t-39.5 -285.5zM379 1491l164 295h143l170 -295h-94l-148 215l-141 -215h-94z" />
<glyph unicode="&#xd5;" horiz-adv-x="1230" d="M96 682q0 149 34.5 277.5t99.5 224t163.5 150.5t220.5 55q162 0 282 -95t179.5 -253.5t59.5 -358.5t-59.5 -358.5t-179.5 -253.5t-282 -95q-122 0 -220.5 55t-163.5 150.5t-99.5 224t-34.5 277.5zM264 682q0 -158 39.5 -283.5t120 -201.5t190.5 -76t191.5 76t121.5 201.5 t40 283.5q0 159 -40 285t-121.5 201t-191.5 75t-190.5 -75t-120 -200.5t-39.5 -285.5zM340 1499q0 122 44.5 198.5t129.5 76.5q36 0 63.5 -20t43 -48t29.5 -56.5t32 -48.5t41 -20q39 0 61.5 45t22.5 135h86q0 -122 -44.5 -198t-129.5 -76q-44 0 -75.5 30t-46 66t-37 66 t-50.5 30q-37 0 -60.5 -45t-23.5 -135h-86z" />
<glyph unicode="&#xd6;" horiz-adv-x="1230" d="M96 682q0 149 34.5 277.5t99.5 224t163.5 150.5t220.5 55q162 0 282 -95t179.5 -253.5t59.5 -358.5t-59.5 -358.5t-179.5 -253.5t-282 -95q-122 0 -220.5 55t-163.5 150.5t-99.5 224t-34.5 277.5zM264 682q0 -158 39.5 -283.5t120 -201.5t190.5 -76t191.5 76t121.5 201.5 t40 283.5q0 159 -40 285t-121.5 201t-191.5 75t-190.5 -75t-120 -200.5t-39.5 -285.5zM344 1583q0 37 27 64.5t65 27.5q37 0 64.5 -27.5t27.5 -64.5q0 -38 -27.5 -65t-64.5 -27q-38 0 -65 27t-27 65zM700 1583q0 37 27.5 64.5t65.5 27.5t65 -27.5t27 -64.5q0 -38 -27 -65 t-65 -27t-65.5 27t-27.5 65z" />
<glyph unicode="&#xd7;" horiz-adv-x="897" d="M113 422l262 262l-262 262l75 74l261 -262l262 262l73 -74l-262 -262l262 -262l-73 -74l-262 262l-261 -262z" />
<glyph unicode="&#xd8;" horiz-adv-x="1230" d="M96 682q0 149 34.5 277.5t99.5 224t163.5 150.5t220.5 55q150 0 273 -89l37 66h120l-77 -141q81 -96 124.5 -237t43.5 -306q0 -200 -59.5 -358.5t-179.5 -253.5t-282 -95q-155 0 -276 91l-37 -66h-121l78 143q-78 97 -120 236.5t-42 302.5zM264 682q0 -233 80 -381 l467 860q-85 82 -197 82q-110 0 -190.5 -75t-120 -200.5t-39.5 -285.5zM414 205q84 -84 200 -84q110 0 191.5 76t121.5 201.5t40 283.5q0 235 -84 385z" />
<glyph unicode="&#xd9;" horiz-adv-x="1165" d="M143 442v924h164v-924q0 -158 72 -239.5t205 -81.5q132 0 203 81.5t71 239.5v924h164v-924q0 -224 -115.5 -345.5t-322.5 -121.5t-324 121.5t-117 345.5zM324 1786h149l232 -295h-105z" />
<glyph unicode="&#xda;" horiz-adv-x="1165" d="M143 442v924h164v-924q0 -158 72 -239.5t205 -81.5q132 0 203 81.5t71 239.5v924h164v-924q0 -224 -115.5 -345.5t-322.5 -121.5t-324 121.5t-117 345.5zM463 1491l233 295h148l-277 -295h-104z" />
<glyph unicode="&#xdb;" horiz-adv-x="1165" d="M143 442v924h164v-924q0 -158 72 -239.5t205 -81.5q132 0 203 81.5t71 239.5v924h164v-924q0 -224 -115.5 -345.5t-322.5 -121.5t-324 121.5t-117 345.5zM350 1491l164 295h143l170 -295h-94l-147 215l-142 -215h-94z" />
<glyph unicode="&#xdc;" horiz-adv-x="1165" d="M143 442v924h164v-924q0 -158 72 -239.5t205 -81.5q132 0 203 81.5t71 239.5v924h164v-924q0 -224 -115.5 -345.5t-322.5 -121.5t-324 121.5t-117 345.5zM313 1583q0 37 27.5 64.5t65.5 27.5q37 0 64.5 -27.5t27.5 -64.5q0 -38 -27.5 -65t-64.5 -27q-38 0 -65.5 27 t-27.5 65zM670 1583q0 37 27 64.5t65 27.5t65 -27.5t27 -64.5q0 -38 -27 -65t-65 -27t-65 27t-27 65z" />
<glyph unicode="&#xdd;" horiz-adv-x="1026" d="M10 1366h183l321 -631l322 631h180l-422 -788v-578h-162v578zM401 1491l234 295h147l-276 -295h-105z" />
<glyph unicode="&#xde;" horiz-adv-x="999" d="M143 0v1366h164v-246h252q121 0 209 -57.5t129 -149t41 -204.5t-41.5 -204t-129 -147.5t-208.5 -56.5h-252v-301h-164zM307 446h236q105 0 166 72.5t61 190.5q0 119 -61.5 193.5t-165.5 74.5h-236v-531z" />
<glyph unicode="&#xdf;" horiz-adv-x="1075" d="M143 0v1040q0 149 97 247.5t254 98.5q136 0 231.5 -72t95.5 -184q0 -60 -26.5 -107.5t-64 -78.5t-75 -58.5t-64 -62t-26.5 -75.5q0 -42 26 -74t68 -53.5t92.5 -41.5t101.5 -45.5t93 -58.5t68 -88t26 -127q0 -120 -86.5 -202.5t-234.5 -82.5q-111 0 -184.5 36t-137.5 106 l70 104q40 -52 101.5 -88.5t138.5 -36.5q84 0 135 45.5t51 114.5q0 46 -26 81t-67.5 58t-91.5 43.5t-100.5 45.5t-92 56t-67.5 82.5t-26 118.5q0 56 26 102.5t63 77.5t74 59.5t63 63t26 72.5q0 61 -53.5 100t-128.5 39q-87 0 -144 -56t-57 -159v-1040h-148z" />
<glyph unicode="&#xe0;" horiz-adv-x="925" d="M84 305q0 150 87 238t212 88q172 0 262 -129v174q0 101 -53 156t-150 55q-139 0 -249 -121l-66 102q137 146 338 146q152 0 240 -80t88 -242v-692h-148v109q-46 -67 -115 -100.5t-147 -33.5q-125 0 -212 90t-87 240zM203 1434h149l232 -295h-105zM233 303q0 -95 54 -158 t145 -63q66 0 122.5 30.5t90.5 92.5v194q-34 63 -90 94t-123 31q-91 0 -145 -63t-54 -158z" />
<glyph unicode="&#xe1;" horiz-adv-x="925" d="M84 305q0 150 87 238t212 88q172 0 262 -129v174q0 101 -53 156t-150 55q-139 0 -249 -121l-66 102q137 146 338 146q152 0 240 -80t88 -242v-692h-148v109q-46 -67 -115 -100.5t-147 -33.5q-125 0 -212 90t-87 240zM233 303q0 -95 54 -158t145 -63q66 0 122.5 30.5 t90.5 92.5v194q-34 63 -90 94t-123 31q-91 0 -145 -63t-54 -158zM348 1139l234 295h147l-276 -295h-105z" />
<glyph unicode="&#xe2;" horiz-adv-x="925" d="M84 305q0 150 87 238t212 88q172 0 262 -129v174q0 101 -53 156t-150 55q-139 0 -249 -121l-66 102q137 146 338 146q152 0 240 -80t88 -242v-692h-148v109q-46 -67 -115 -100.5t-147 -33.5q-125 0 -212 90t-87 240zM231 1139l164 295h144l170 -295h-95l-147 215 l-141 -215h-95zM233 303q0 -95 54 -158t145 -63q66 0 122.5 30.5t90.5 92.5v194q-34 63 -90 94t-123 31q-91 0 -145 -63t-54 -158z" />
<glyph unicode="&#xe3;" horiz-adv-x="925" d="M84 305q0 150 87 238t212 88q172 0 262 -129v174q0 101 -53 156t-150 55q-139 0 -249 -121l-66 102q137 146 338 146q152 0 240 -80t88 -242v-692h-148v109q-46 -67 -115 -100.5t-147 -33.5q-125 0 -212 90t-87 240zM190 1147q0 122 45 198t130 76q36 0 63 -20t43 -48 t29.5 -56t31.5 -48t41 -20q39 0 61.5 45t22.5 135h86q0 -122 -44.5 -198t-129.5 -76q-44 0 -75.5 30t-46 66t-37 66t-50.5 30q-37 0 -60.5 -45t-23.5 -135h-86zM233 303q0 -95 54 -158t145 -63q66 0 122.5 30.5t90.5 92.5v194q-34 63 -90 94t-123 31q-91 0 -145 -63 t-54 -158z" />
<glyph unicode="&#xe4;" horiz-adv-x="925" d="M84 305q0 150 87 238t212 88q172 0 262 -129v174q0 101 -53 156t-150 55q-139 0 -249 -121l-66 102q137 146 338 146q152 0 240 -80t88 -242v-692h-148v109q-46 -67 -115 -100.5t-147 -33.5q-125 0 -212 90t-87 240zM195 1237q0 37 27 64.5t65 27.5q37 0 64.5 -27.5 t27.5 -64.5q0 -38 -27.5 -65t-64.5 -27q-38 0 -65 27t-27 65zM233 303q0 -95 54 -158t145 -63q66 0 122.5 30.5t90.5 92.5v194q-34 63 -90 94t-123 31q-91 0 -145 -63t-54 -158zM551 1237q0 37 27 64.5t65 27.5t65 -27.5t27 -64.5q0 -38 -27 -65t-65 -27t-65 27t-27 65z" />
<glyph unicode="&#xe5;" horiz-adv-x="925" d="M84 305q0 150 87 238t212 88q172 0 262 -129v174q0 101 -53 156t-150 55q-139 0 -249 -121l-66 102q137 146 338 146q152 0 240 -80t88 -242v-692h-148v109q-46 -67 -115 -100.5t-147 -33.5q-125 0 -212 90t-87 240zM233 303q0 -95 54 -158t145 -63q66 0 122.5 30.5 t90.5 92.5v194q-34 63 -90 94t-123 31q-91 0 -145 -63t-54 -158zM279 1309q0 76 54.5 130t131.5 54t130.5 -53.5t53.5 -130.5t-54 -132t-130 -55t-131 55t-55 132zM356 1309q0 -45 32 -77t77 -32q44 0 75 31.5t31 77.5q0 44 -31 76t-75 32t-76.5 -32t-32.5 -76z" />
<glyph unicode="&#xe6;" horiz-adv-x="1513" d="M84 303q0 149 86 238.5t213 89.5q79 0 148 -32t114 -97v174q0 101 -53 156t-150 55q-139 0 -249 -121l-66 102q137 146 338 146q232 0 278 -187q44 84 120 135.5t184 51.5q125 0 214 -72t131 -188.5t42 -264.5v-43h-643q5 -154 80.5 -251t205.5 -97q65 0 128 32.5 t108 90.5l78 -88q-132 -158 -326 -158q-219 0 -344 193q-121 -193 -332 -193q-129 0 -217 89t-88 239zM233 303q0 -101 54.5 -161t144.5 -60q74 0 138 41t102 123q-27 79 -27 151q-34 63 -90.5 95t-122.5 32q-89 0 -144 -60.5t-55 -160.5zM791 557h497q-1 60 -15 116 t-42.5 106.5t-78.5 81t-114 30.5q-62 0 -111 -31.5t-77 -82.5t-42.5 -107t-16.5 -113z" />
<glyph unicode="&#xe7;" horiz-adv-x="833" d="M86 496q0 225 112 371.5t300 146.5q177 0 282 -131l-80 -101q-74 101 -190 101q-127 0 -198.5 -110.5t-71.5 -276.5t71.5 -278t198.5 -112q114 0 190 101l80 -101q-90 -118 -245 -129l-33 -86q27 21 67 21q53 0 88 -37t35 -98q0 -73 -56 -118.5t-140 -45.5 q-107 0 -183 61l37 76q66 -57 144 -57q45 0 77.5 23.5t32.5 62.5q0 33 -17.5 52t-49.5 19q-40 0 -68 -32l-66 37l43 125q-166 20 -263 163.5t-97 352.5z" />
<glyph unicode="&#xe8;" horiz-adv-x="960" d="M86 496q0 144 47.5 261t140 187t215.5 70q127 0 217 -71t132.5 -187t42.5 -264v-46h-643q5 -154 80.5 -251t205.5 -97q66 0 128.5 32t107.5 91l78 -88q-129 -158 -326 -158q-195 0 -310.5 145t-115.5 376zM229 1434h150l231 -295h-104zM238 557h497q-1 60 -15 116 t-42 106.5t-78 81t-115 30.5q-62 0 -111 -31.5t-77 -82.5t-42.5 -107t-16.5 -113z" />
<glyph unicode="&#xe9;" horiz-adv-x="960" d="M86 496q0 144 47.5 261t140 187t215.5 70q127 0 217 -71t132.5 -187t42.5 -264v-46h-643q5 -154 80.5 -251t205.5 -97q66 0 128.5 32t107.5 91l78 -88q-129 -158 -326 -158q-195 0 -310.5 145t-115.5 376zM238 557h497q-1 60 -15 116t-42 106.5t-78 81t-115 30.5 q-62 0 -111 -31.5t-77 -82.5t-42.5 -107t-16.5 -113zM373 1139l233 295h148l-277 -295h-104z" />
<glyph unicode="&#xea;" horiz-adv-x="960" d="M86 496q0 144 47.5 261t140 187t215.5 70q127 0 217 -71t132.5 -187t42.5 -264v-46h-643q5 -154 80.5 -251t205.5 -97q66 0 128.5 32t107.5 91l78 -88q-129 -158 -326 -158q-195 0 -310.5 145t-115.5 376zM238 557h497q-1 60 -15 116t-42 106.5t-78 81t-115 30.5 q-62 0 -111 -31.5t-77 -82.5t-42.5 -107t-16.5 -113zM252 1139l164 295h143l170 -295h-94l-148 215l-141 -215h-94z" />
<glyph unicode="&#xeb;" horiz-adv-x="960" d="M86 496q0 144 47.5 261t140 187t215.5 70q127 0 217 -71t132.5 -187t42.5 -264v-46h-643q5 -154 80.5 -251t205.5 -97q66 0 128.5 32t107.5 91l78 -88q-129 -158 -326 -158q-195 0 -310.5 145t-115.5 376zM217 1237q0 37 27 64.5t65 27.5q37 0 64.5 -27.5t27.5 -64.5 q0 -38 -27.5 -65t-64.5 -27q-38 0 -65 27t-27 65zM238 557h497q-1 60 -15 116t-42 106.5t-78 81t-115 30.5q-62 0 -111 -31.5t-77 -82.5t-42.5 -107t-16.5 -113zM573 1237q0 37 27.5 64.5t65.5 27.5t65 -27.5t27 -64.5q0 -38 -27 -65t-65 -27t-65.5 27t-27.5 65z" />
<glyph unicode="&#xec;" horiz-adv-x="415" d="M-55 1434h149l232 -295h-105zM135 0v989h146v-989h-146z" />
<glyph unicode="&#xed;" horiz-adv-x="415" d="M90 1139l234 295h147l-276 -295h-105zM135 0v989h146v-989h-146z" />
<glyph unicode="&#xee;" horiz-adv-x="415" d="M-29 1139l164 295h144l170 -295h-95l-147 215l-141 -215h-95zM135 0v989h146v-989h-146z" />
<glyph unicode="&#xef;" horiz-adv-x="415" d="M-61 1237q0 37 27 64.5t65 27.5q37 0 64.5 -27.5t27.5 -64.5q0 -38 -27.5 -65t-64.5 -27q-38 0 -65 27t-27 65zM135 0v989h146v-989h-146zM295 1237q0 37 27 64.5t65 27.5t65 -27.5t27 -64.5q0 -38 -27 -65t-65 -27t-65 27t-27 65z" />
<glyph unicode="&#xf0;" horiz-adv-x="978" d="M86 481q0 139 43 251.5t128 181.5t198 69q155 0 247 -154q-71 168 -202 320l-252 -113l-35 80l227 101q-32 34 -121 114l107 92q85 -78 145 -149l187 84l35 -80l-164 -72q264 -333 264 -692q0 -155 -44.5 -275t-137.5 -192t-222 -72q-127 0 -220 69.5t-138 183t-45 253.5 zM242 479q0 -73 15 -138.5t44 -119t77.5 -84.5t110.5 -31q63 0 112 31t78.5 84.5t44.5 119t15 138.5t-15 139t-44.5 119.5t-78.5 85t-112 31.5q-62 0 -110.5 -31.5t-77.5 -85t-44 -119.5t-15 -139z" />
<glyph unicode="&#xf1;" horiz-adv-x="954" d="M137 0v989h146v-141q46 69 124.5 117.5t163.5 48.5q250 0 250 -269v-745h-147v702q0 96 -40.5 138.5t-117.5 42.5q-69 0 -132.5 -46.5t-100.5 -111.5v-725h-146zM203 1147q0 122 44.5 198t129.5 76q36 0 63.5 -20t43 -48t29.5 -56t32 -48t41 -20q39 0 61.5 45t22.5 135 h86q0 -122 -44.5 -198t-129.5 -76q-44 0 -75.5 30t-46 66t-37 66t-50.5 30q-37 0 -60.5 -45t-23.5 -135h-86z" />
<glyph unicode="&#xf2;" horiz-adv-x="978" d="M86 496q0 106 26.5 199t75.5 164.5t127 113t174 41.5q128 0 221.5 -72t138 -187.5t44.5 -258.5t-44.5 -259t-138 -189t-221.5 -73q-127 0 -220.5 73t-138 189t-44.5 259zM229 1434h150l231 -295h-104zM242 496q0 -78 15 -146.5t44 -123.5t77.5 -87.5t110.5 -32.5 q63 0 112 32.5t78.5 87.5t44.5 123.5t15 146.5q0 77 -15 145t-44.5 123t-78.5 87t-112 32q-82 0 -139.5 -56.5t-82.5 -141.5t-25 -189z" />
<glyph unicode="&#xf3;" horiz-adv-x="978" d="M86 496q0 106 26.5 199t75.5 164.5t127 113t174 41.5q128 0 221.5 -72t138 -187.5t44.5 -258.5t-44.5 -259t-138 -189t-221.5 -73q-127 0 -220.5 73t-138 189t-44.5 259zM242 496q0 -78 15 -146.5t44 -123.5t77.5 -87.5t110.5 -32.5q63 0 112 32.5t78.5 87.5t44.5 123.5 t15 146.5q0 77 -15 145t-44.5 123t-78.5 87t-112 32q-82 0 -139.5 -56.5t-82.5 -141.5t-25 -189zM371 1139l233 295h148l-277 -295h-104z" />
<glyph unicode="&#xf4;" horiz-adv-x="978" d="M86 496q0 106 26.5 199t75.5 164.5t127 113t174 41.5q128 0 221.5 -72t138 -187.5t44.5 -258.5t-44.5 -259t-138 -189t-221.5 -73q-127 0 -220.5 73t-138 189t-44.5 259zM242 496q0 -78 15 -146.5t44 -123.5t77.5 -87.5t110.5 -32.5q63 0 112 32.5t78.5 87.5t44.5 123.5 t15 146.5q0 77 -15 145t-44.5 123t-78.5 87t-112 32q-82 0 -139.5 -56.5t-82.5 -141.5t-25 -189zM254 1139l164 295h143l170 -295h-94l-148 215l-141 -215h-94z" />
<glyph unicode="&#xf5;" horiz-adv-x="978" d="M86 496q0 106 26.5 199t75.5 164.5t127 113t174 41.5q128 0 221.5 -72t138 -187.5t44.5 -258.5t-44.5 -259t-138 -189t-221.5 -73q-127 0 -220.5 73t-138 189t-44.5 259zM213 1147q0 122 44.5 198t129.5 76q36 0 63.5 -20t43 -48t29.5 -56t32 -48t41 -20q39 0 61.5 45 t22.5 135h86q0 -122 -44.5 -198t-129.5 -76q-44 0 -75.5 30t-46 66t-37 66t-50.5 30q-37 0 -60.5 -45t-23.5 -135h-86zM242 496q0 -78 15 -146.5t44 -123.5t77.5 -87.5t110.5 -32.5q63 0 112 32.5t78.5 87.5t44.5 123.5t15 146.5q0 77 -15 145t-44.5 123t-78.5 87t-112 32 q-82 0 -139.5 -56.5t-82.5 -141.5t-25 -189z" />
<glyph unicode="&#xf6;" horiz-adv-x="978" d="M86 496q0 106 26.5 199t75.5 164.5t127 113t174 41.5q128 0 221.5 -72t138 -187.5t44.5 -258.5t-44.5 -259t-138 -189t-221.5 -73q-127 0 -220.5 73t-138 189t-44.5 259zM221 1237q0 37 27 64.5t65 27.5q37 0 65 -27.5t28 -64.5q0 -38 -28 -65t-65 -27q-38 0 -65 27 t-27 65zM242 496q0 -78 15 -146.5t44 -123.5t77.5 -87.5t110.5 -32.5q63 0 112 32.5t78.5 87.5t44.5 123.5t15 146.5q0 77 -15 145t-44.5 123t-78.5 87t-112 32q-82 0 -139.5 -56.5t-82.5 -141.5t-25 -189zM578 1237q0 37 27 64.5t65 27.5t65 -27.5t27 -64.5q0 -38 -27 -65 t-65 -27t-65 27t-27 65z" />
<glyph unicode="&#xf7;" horiz-adv-x="907" d="M59 639v104h789v-104h-789zM362 344q0 37 27.5 64.5t65.5 27.5t65 -27.5t27 -64.5q0 -38 -27 -65t-65 -27t-65.5 27t-27.5 65zM362 1030q0 38 27 64t66 26q38 0 65 -26t27 -64t-27 -66t-65 -28t-65.5 28t-27.5 66z" />
<glyph unicode="&#xf8;" horiz-adv-x="978" d="M86 496q0 106 26.5 199t75.5 164.5t127 113t174 41.5q136 0 232 -80l35 55h102l-78 -119q113 -144 113 -374q0 -143 -44.5 -259t-138 -189t-221.5 -73q-138 0 -235 84l-39 -59h-102l80 123q-107 143 -107 373zM242 496q0 -141 41 -234l360 553q-65 68 -154 68 q-82 0 -139.5 -56.5t-82.5 -141.5t-25 -189zM332 180q61 -74 157 -74q63 0 112 32.5t78.5 87.5t44.5 123.5t15 146.5q0 136 -47 239z" />
<glyph unicode="&#xf9;" horiz-adv-x="952" d="M135 242v747h146v-704q0 -96 40.5 -137.5t118.5 -41.5q69 0 132.5 45t99.5 109v729h147v-989h-147v137q-48 -69 -124.5 -115.5t-162.5 -46.5q-127 0 -188.5 66t-61.5 201zM217 1434h150l231 -295h-104z" />
<glyph unicode="&#xfa;" horiz-adv-x="952" d="M135 242v747h146v-704q0 -96 40.5 -137.5t118.5 -41.5q69 0 132.5 45t99.5 109v729h147v-989h-147v137q-48 -69 -124.5 -115.5t-162.5 -46.5q-127 0 -188.5 66t-61.5 201zM360 1139l234 295h147l-276 -295h-105z" />
<glyph unicode="&#xfb;" horiz-adv-x="952" d="M135 242v747h146v-704q0 -96 40.5 -137.5t118.5 -41.5q69 0 132.5 45t99.5 109v729h147v-989h-147v137q-48 -69 -124.5 -115.5t-162.5 -46.5q-127 0 -188.5 66t-61.5 201zM240 1139l163 295h144l170 -295h-94l-148 215l-141 -215h-94z" />
<glyph unicode="&#xfc;" horiz-adv-x="952" d="M135 242v747h146v-704q0 -96 40.5 -137.5t118.5 -41.5q69 0 132.5 45t99.5 109v729h147v-989h-147v137q-48 -69 -124.5 -115.5t-162.5 -46.5q-127 0 -188.5 66t-61.5 201zM211 1237q0 37 27 64.5t65 27.5q37 0 64.5 -27.5t27.5 -64.5q0 -38 -27.5 -65t-64.5 -27 q-38 0 -65 27t-27 65zM567 1237q0 37 27 64.5t65 27.5t65.5 -27.5t27.5 -64.5q0 -38 -27.5 -65t-65.5 -27t-65 27t-27 65z" />
<glyph unicode="&#xfd;" horiz-adv-x="837" d="M12 989h160l248 -811l248 811h157l-397 -1196q-34 -105 -93.5 -149.5t-152.5 -44.5q-58 0 -98 14l25 131q22 -14 65 -14t70 21.5t47 76.5l51 152zM301 1139l234 295h147l-276 -295h-105z" />
<glyph unicode="&#xfe;" horiz-adv-x="980" d="M135 -377v1743h146v-514q43 76 112 119t150 43q165 0 259.5 -141t94.5 -377q0 -235 -94.5 -378t-259.5 -143q-79 0 -148.5 41.5t-113.5 122.5v-516h-146zM281 270q31 -67 94 -115.5t131 -48.5q116 0 176.5 109.5t60.5 280.5q0 110 -25 195.5t-79.5 138.5t-132.5 53 q-68 0 -131.5 -46.5t-93.5 -113.5v-453z" />
<glyph unicode="&#xff;" horiz-adv-x="837" d="M12 989h160l248 -811l248 811h157l-397 -1196q-34 -105 -93.5 -149.5t-152.5 -44.5q-58 0 -98 14l25 131q22 -14 65 -14t70 21.5t47 76.5l51 152zM150 1237q0 37 27 64.5t65 27.5q37 0 64.5 -27.5t27.5 -64.5q0 -38 -27.5 -65t-64.5 -27q-38 0 -65 27t-27 65zM506 1237 q0 37 27 64.5t65 27.5t65 -27.5t27 -64.5q0 -38 -27 -65t-65 -27t-65 27t-27 65z" />
<glyph unicode="&#x152;" horiz-adv-x="1744" d="M96 682q0 201 57 358.5t171.5 251.5t271.5 94q104 0 197.5 -52t148.5 -160v192h703v-145h-541v-449h526v-145h-526v-482h541v-145h-703v193q-55 -110 -148.5 -164t-197.5 -54q-156 0 -271 95t-172 253.5t-57 358.5zM264 682q0 -159 39 -284t120.5 -201t194.5 -76 q111 0 197 76.5t127 214.5v542q-41 138 -126.5 212.5t-197.5 74.5q-113 0 -194.5 -75t-120.5 -199.5t-39 -284.5z" />
<glyph unicode="&#x153;" horiz-adv-x="1611" d="M86 496q0 106 26.5 199t75.5 164.5t127 113t174 41.5q127 0 206.5 -71.5t119.5 -178.5q19 49 47 91.5t67 79t94 58t118 21.5q127 0 217 -72t132 -188.5t42 -264.5v-43h-641q5 -154 80 -251t205 -97q67 0 128.5 32t106.5 91l80 -88q-132 -158 -328 -158q-137 0 -221 72 t-125 182q-19 -50 -45.5 -92t-65.5 -80.5t-94.5 -60t-122.5 -21.5q-127 0 -220.5 73t-138 189t-44.5 259zM242 496q0 -78 15 -147t44.5 -124.5t77.5 -88t110 -32.5q82 0 140.5 57t84 143t25.5 192q0 77 -15 145.5t-45 123t-79 86.5t-111 32q-81 0 -138.5 -56t-83 -141 t-25.5 -190zM889 557h497q0 59 -14 116t-41.5 107t-77.5 80.5t-114 30.5q-63 0 -112.5 -31.5t-77.5 -82.5t-43 -107t-17 -113z" />
<glyph unicode="&#x178;" horiz-adv-x="1026" d="M10 1366h183l321 -631l322 631h180l-422 -788v-578h-162v578zM250 1583q0 37 27 64.5t65 27.5q37 0 64.5 -27.5t27.5 -64.5q0 -38 -27.5 -65t-64.5 -27q-38 0 -65 27t-27 65zM606 1583q0 37 27 64.5t65 27.5t65.5 -27.5t27.5 -64.5q0 -38 -27.5 -65t-65.5 -27t-65 27 t-27 65z" />
<glyph unicode="&#x2c6;" horiz-adv-x="477" d="M0 1139l164 295h143l170 -295h-94l-147 215l-142 -215h-94z" />
<glyph unicode="&#x2dc;" horiz-adv-x="552" d="M0 1147q0 122 44.5 198t129.5 76q36 0 63.5 -20t43 -48t29.5 -56t32 -48t41 -20q39 0 61.5 45t22.5 135h86q0 -122 -44.5 -198t-129.5 -76q-44 0 -75.5 30t-46 66t-37 66t-50.5 30q-37 0 -60.5 -45t-23.5 -135h-86z" />
<glyph unicode="&#x2000;" horiz-adv-x="895" />
<glyph unicode="&#x2001;" horiz-adv-x="1790" />
<glyph unicode="&#x2002;" horiz-adv-x="895" />
<glyph unicode="&#x2003;" horiz-adv-x="1790" />
<glyph unicode="&#x2004;" horiz-adv-x="596" />
<glyph unicode="&#x2005;" horiz-adv-x="447" />
<glyph unicode="&#x2006;" horiz-adv-x="298" />
<glyph unicode="&#x2007;" horiz-adv-x="298" />
<glyph unicode="&#x2008;" horiz-adv-x="223" />
<glyph unicode="&#x2009;" horiz-adv-x="358" />
<glyph unicode="&#x200a;" horiz-adv-x="99" />
<glyph unicode="&#x2010;" horiz-adv-x="548" d="M61 430v131h426v-131h-426z" />
<glyph unicode="&#x2011;" horiz-adv-x="548" d="M61 430v131h426v-131h-426z" />
<glyph unicode="&#x2012;" horiz-adv-x="548" d="M61 430v131h426v-131h-426z" />
<glyph unicode="&#x2013;" horiz-adv-x="1079" d="M61 430v131h957v-131h-957z" />
<glyph unicode="&#x2014;" horiz-adv-x="1509" d="M61 430v131h1387v-131h-1387z" />
<glyph unicode="&#x2018;" horiz-adv-x="468" d="M109 1083q0 89 44.5 170.5t116.5 132.5l74 -59q-50 -33 -87.5 -87t-41.5 -103l10 2q10 2 15 2q42 0 70 -30t28 -73t-31.5 -74.5t-75.5 -31.5q-52 0 -87 40.5t-35 110.5z" />
<glyph unicode="&#x2019;" horiz-adv-x="468" d="M117 991q50 32 87.5 87t43.5 104q-8 -4 -27 -4q-41 0 -68.5 29t-27.5 73q0 43 30.5 74.5t75.5 31.5q52 0 87.5 -41t35.5 -110q0 -90 -46 -171.5t-118 -133.5z" />
<glyph unicode="&#x201a;" horiz-adv-x="468" d="M117 -199q50 34 87.5 88t43.5 103q-1 0 -11 -1t-16 -1q-41 0 -68.5 28.5t-27.5 71.5q0 45 30.5 77t75.5 32q52 0 87.5 -41.5t35.5 -112.5q0 -89 -46 -170t-118 -133z" />
<glyph unicode="&#x201c;" horiz-adv-x="790" d="M115 1083q0 89 45 170t116 133l76 -59q-50 -32 -87.5 -86.5t-43.5 -103.5l11 2q10 2 16 2q41 0 68.5 -30t27.5 -73t-31 -74.5t-75 -31.5q-52 0 -87.5 41t-35.5 110zM436 1083q0 89 46 170t118 133l74 -59q-50 -33 -87.5 -87t-41.5 -103l9 2q10 2 15 2q41 0 69 -30t28 -73 t-31 -74.5t-76 -31.5q-52 0 -87.5 41t-35.5 110z" />
<glyph unicode="&#x201d;" horiz-adv-x="790" d="M117 991q50 32 87.5 87t43.5 104q-8 -4 -27 -4q-41 0 -68.5 29t-27.5 73q0 43 30.5 74.5t75.5 31.5q52 0 87.5 -41t35.5 -110q0 -90 -46 -171.5t-118 -133.5zM440 991q50 33 87.5 87.5t41.5 103.5q-4 -4 -26 -4q-41 0 -69 29t-28 73q0 43 31.5 74.5t75.5 31.5 q52 0 87.5 -41t35.5 -110q0 -91 -45 -172t-117 -133z" />
<glyph unicode="&#x201e;" horiz-adv-x="790" d="M117 -199q50 34 87.5 88t43.5 103q-1 0 -11 -1t-16 -1q-41 0 -68.5 28.5t-27.5 71.5q0 45 30.5 77t75.5 32q52 0 87.5 -41.5t35.5 -112.5q0 -89 -46 -170t-118 -133zM440 -199q50 34 87.5 88t41.5 103l-10 -1q-10 -1 -16 -1q-41 0 -69 28.5t-28 71.5q0 44 31.5 76.5 t75.5 32.5q52 0 87.5 -41.5t35.5 -112.5q0 -89 -45 -170.5t-117 -132.5z" />
<glyph unicode="&#x2022;" horiz-adv-x="733" d="M150 496q0 91 64 155t155 64t155 -64t64 -155q0 -89 -64 -153t-155 -64t-155 64t-64 153z" />
<glyph unicode="&#x2026;" horiz-adv-x="1402" d="M125 90q0 43 32 76t76 33t77.5 -33t33.5 -76q0 -44 -33.5 -77t-77.5 -33t-76 33t-32 77zM592 90q0 43 32.5 76t77.5 33q44 0 76.5 -33t32.5 -76q0 -44 -32.5 -77t-76.5 -33q-45 0 -77.5 32.5t-32.5 77.5zM1061 90q0 43 32 76t76 33t77.5 -33t33.5 -76q0 -44 -33.5 -77 t-77.5 -33t-76 33t-32 77z" />
<glyph unicode="&#x202f;" horiz-adv-x="358" />
<glyph unicode="&#x2039;" horiz-adv-x="516" d="M61 498l256 362h138l-256 -362l256 -369h-138z" />
<glyph unicode="&#x203a;" horiz-adv-x="516" d="M61 129l256 369l-256 362h138l256 -362l-256 -369h-138z" />
<glyph unicode="&#x205f;" horiz-adv-x="447" />
<glyph unicode="&#x20ac;" horiz-adv-x="1126" d="M49 487v103h84q-2 29 -2 92t4 96h-86v105h98q44 231 180.5 368.5t336.5 137.5q257 0 401 -267l-135 -65q-91 186 -266 186q-128 0 -219.5 -97t-127.5 -263h435v-105h-449q-4 -31 -4 -96q0 -63 4 -92h449v-103h-435q34 -169 125.5 -267.5t221.5 -98.5q90 0 159 55.5 t109 147.5l135 -64q-31 -62 -66.5 -109.5t-83.5 -89t-112.5 -64t-140.5 -22.5q-202 0 -338.5 139t-178.5 373h-98z" />
<glyph unicode="&#x2122;" horiz-adv-x="847" d="M35 1313v53h270v-53h-106v-398h-58v398h-106zM379 915v451h88l111 -324l110 324h88v-451h-57v373l-133 -373h-17l-133 373v-373h-57z" />
<glyph unicode="&#xe000;" horiz-adv-x="993" d="M0 0v993h993v-993h-993z" />
</font>
</defs></svg> 