<?xml version="1.0" standalone="no"?>
<!DOCTYPE svg PUBLIC "-//W3C//DTD SVG 20010904//EN"
 "http://www.w3.org/TR/2001/REC-SVG-20010904/DTD/svg10.dtd">
<svg version="1.0" xmlns="http://www.w3.org/2000/svg"
 width="200.000000pt" height="200.000000pt" viewBox="0 0 200.000000 200.000000"
 preserveAspectRatio="xMidYMid meet">
<metadata>
Created by potrace 1.11, written by Peter Selinger 2001-2013
</metadata>
<g transform="translate(0.000000,200.000000) scale(0.100000,-0.100000)"
fill="#ffcaa3" stroke="none">
<path d="M525 1685 c-25 -24 -25 -26 -25 -204 l0 -180 -126 -3 -125 -3 148
-96 148 -95 5 264 c5 246 6 265 24 278 16 12 91 14 428 14 395 0 409 -1 428
-20 19 -19 20 -33 20 -280 0 -143 2 -260 6 -260 3 0 73 44 156 98 l152 97
-132 3 -132 3 0 180 c0 178 0 180 -25 204 l-24 25 -451 0 -451 0 -24 -25z"/>
<path d="M240 859 l0 -381 235 228 c130 125 232 231 228 234 -5 4 -64 43 -133
87 -69 44 -171 110 -227 146 l-103 67 0 -381z"/>
<path d="M1535 1087 c-121 -79 -220 -147 -220 -153 0 -5 102 -110 228 -233
l227 -224 0 376 c0 208 -3 377 -7 377 -5 0 -107 -65 -228 -143z"/>
<path d="M521 690 l-224 -220 709 0 708 0 -39 41 c-22 22 -124 121 -227 220
l-186 180 -118 -77 c-64 -41 -123 -78 -130 -81 -7 -2 -69 32 -138 76 -70 45
-127 81 -129 81 -1 -1 -103 -100 -226 -220z"/>
</g>
</svg>
